[
{"PATNO": "20160080463", "TITLE": "Methods and Systems for Dynamically Generating and Reusing Dynamic Web Content"},
{"PATNO": "20150006307", "TITLE": "METHODS AND SYSTEMS FOR MANAGING TRANSACTION CARD ACCOUNTS ENABLED FOR USE WITH PARTICULAR CATEGORIES OF PROVIDERS AND/OR GOODS/SERVICES"},
{"PATNO": "20140337210", "TITLE": "Methods and Systems for Routing Payment Transactions"},
{"PATNO": "20140201071", "TITLE": "Methods and Systems for Routing Payment Transactions"},
{"PATNO": "20140095251", "TITLE": "Methods and Systems for Optimizing Marketing Strategy to Customers or Prospective Customers of a Financial Institution"},
{"PATNO": "20140019343", "TITLE": "Methods and Systems for Routing Payment Transactions"},
{"PATNO": "20140019320", "TITLE": "Methods and Systems for Managing Transaction Card Accounts"},
{"PATNO": "20130238493", "TITLE": "METHODS AND SYSTEMS FOR ROUTING PAYMENT TRANSACTIONS"},
{"PATNO": "20130218698", "TITLE": "Method and System for a Multi-Purpose Transactional Platform"}
]